# WaveFront *.obj file (generated by Autodesk ATF)

mtllib tapon pintura 5 octavos.mtl

g Solid1

v -0.397500 0.000000 0.550000
v -0.397500 0.000000 0.630000
v -0.395001 -0.044506 0.550000
v -0.395001 -0.044506 0.630000
v -0.395001 0.044506 0.550000
v -0.395001 0.044506 0.630000
v -0.387534 -0.088452 0.550000
v -0.387534 -0.088452 0.630000
v -0.387534 0.088452 0.550000
v -0.387534 0.088452 0.630000
v -0.375194 -0.131286 0.550000
v -0.375194 -0.131286 0.630000
v -0.375194 0.131286 0.550000
v -0.375194 0.131286 0.630000
v -0.358135 -0.172469 0.550000
v -0.358135 -0.172469 0.630000
v -0.358135 0.172469 0.550000
v -0.358135 0.172469 0.630000
v -0.336573 -0.211483 0.550000
v -0.336573 -0.211483 0.630000
v -0.336573 0.211483 0.550000
v -0.336573 0.211483 0.630000
v -0.311858 -0.020022 0.000000
v -0.311858 -0.020022 0.550000
v -0.311858 0.020022 0.000000
v -0.311858 0.020022 0.550000
v -0.310778 -0.247837 0.550000
v -0.310778 -0.247837 0.630000
v -0.310778 0.247837 0.550000
v -0.310778 0.247837 0.630000
v -0.306737 -0.059737 0.000000
v -0.306737 -0.059737 0.550000
v -0.306737 0.059737 0.000000
v -0.306737 0.059737 0.550000
v -0.296580 -0.098471 0.000000
v -0.296580 -0.098471 0.550000
v -0.296580 0.098471 0.000000
v -0.296580 0.098471 0.550000
v -0.281553 -0.135589 0.000000
v -0.281553 -0.135589 0.550000
v -0.281553 0.135589 0.000000
v -0.281553 0.135589 0.550000
v -0.281075 -0.281075 0.550000
v -0.281075 -0.281075 0.630000
v -0.281075 0.281075 0.550000
v -0.281075 0.281075 0.630000
v -0.261903 -0.170480 0.000000
v -0.261903 -0.170480 0.550000
v -0.261903 0.170480 0.000000
v -0.261903 0.170480 0.550000
v -0.247837 -0.310778 0.550000
v -0.247837 -0.310778 0.630000
v -0.247837 0.310778 0.550000
v -0.247837 0.310778 0.630000
v -0.237952 -0.202571 0.000000
v -0.237952 -0.202571 0.550000
v -0.237952 0.202571 0.000000
v -0.237952 0.202571 0.550000
v -0.211483 -0.336573 0.550000
v -0.211483 -0.336573 0.630000
v -0.211483 0.336573 0.550000
v -0.211483 0.336573 0.630000
v -0.210094 -0.231337 0.000000
v -0.210094 -0.231337 0.550000
v -0.210094 0.231337 0.000000
v -0.210094 0.231337 0.550000
v -0.178786 -0.256304 0.000000
v -0.178786 -0.256304 0.550000
v -0.178786 0.256304 0.000000
v -0.178786 0.256304 0.550000
v -0.172469 -0.358135 0.550000
v -0.172469 -0.358135 0.630000
v -0.172469 0.358135 0.550000
v -0.172469 0.358135 0.630000
v -0.144543 -0.277062 0.000000
v -0.144543 -0.277062 0.550000
v -0.144543 0.277062 0.000000
v -0.144543 0.277062 0.550000
v -0.131286 -0.375194 0.550000
v -0.131286 -0.375194 0.630000
v -0.131286 0.375194 0.550000
v -0.131286 0.375194 0.630000
v -0.107927 -0.293271 0.000000
v -0.107927 -0.293271 0.550000
v -0.107927 0.293271 0.000000
v -0.107927 0.293271 0.550000
v -0.088452 -0.387534 0.550000
v -0.088452 -0.387534 0.630000
v -0.088452 0.387534 0.550000
v -0.088452 0.387534 0.630000
v -0.069538 -0.304665 0.000000
v -0.069538 -0.304665 0.550000
v -0.069538 0.304665 0.000000
v -0.069538 0.304665 0.550000
v -0.044506 -0.395001 0.550000
v -0.044506 -0.395001 0.630000
v -0.044506 0.395001 0.550000
v -0.044506 0.395001 0.630000
v -0.030007 -0.311056 0.000000
v -0.030007 -0.311056 0.550000
v -0.030007 0.311056 0.000000
v -0.030007 0.311056 0.550000
v 0.000000 -0.397500 0.550000
v 0.000000 -0.397500 0.630000
v 0.000000 0.397500 0.550000
v 0.000000 0.397500 0.630000
v 0.010016 -0.312339 0.000000
v 0.010016 -0.312339 0.550000
v 0.010016 0.312339 0.000000
v 0.010016 0.312339 0.550000
v 0.044506 -0.395001 0.550000
v 0.044506 -0.395001 0.630000
v 0.044506 0.395001 0.550000
v 0.044506 0.395001 0.630000
v 0.049875 -0.308494 0.000000
v 0.049875 -0.308494 0.550000
v 0.049875 0.308494 0.000000
v 0.049875 0.308494 0.550000
v 0.088452 -0.387534 0.550000
v 0.088452 -0.387534 0.630000
v 0.088452 0.387534 0.550000
v 0.088452 0.387534 0.630000
v 0.088915 -0.299584 0.000000
v 0.088915 -0.299584 0.550000
v 0.088915 0.299584 0.000000
v 0.088915 0.299584 0.550000
v 0.126495 -0.285754 0.000000
v 0.126495 -0.285754 0.550000
v 0.126495 0.285754 0.000000
v 0.126495 0.285754 0.550000
v 0.131286 -0.375194 0.550000
v 0.131286 -0.375194 0.630000
v 0.131286 0.375194 0.550000
v 0.131286 0.375194 0.630000
v 0.161998 -0.267232 0.000000
v 0.161998 -0.267232 0.550000
v 0.161998 0.267232 0.000000
v 0.161998 0.267232 0.550000
v 0.172469 -0.358135 0.550000
v 0.172469 -0.358135 0.630000
v 0.172469 0.358135 0.550000
v 0.172469 0.358135 0.630000
v 0.194841 -0.244322 0.000000
v 0.194841 -0.244322 0.550000
v 0.194841 0.244322 0.000000
v 0.194841 0.244322 0.550000
v 0.211483 -0.336573 0.550000
v 0.211483 -0.336573 0.630000
v 0.211483 0.336573 0.550000
v 0.211483 0.336573 0.630000
v 0.224484 -0.217401 0.000000
v 0.224484 -0.217401 0.550000
v 0.224484 0.217401 0.000000
v 0.224484 0.217401 0.550000
v 0.247837 -0.310778 0.550000
v 0.247837 -0.310778 0.630000
v 0.247837 0.310778 0.550000
v 0.247837 0.310778 0.630000
v 0.250442 -0.186910 0.000000
v 0.250442 -0.186910 0.550000
v 0.250442 0.186910 0.000000
v 0.250442 0.186910 0.550000
v 0.272287 -0.153349 0.000000
v 0.272287 -0.153349 0.550000
v 0.272287 0.153349 0.000000
v 0.272287 0.153349 0.550000
v 0.281075 -0.281075 0.550000
v 0.281075 -0.281075 0.630000
v 0.281075 0.281075 0.550000
v 0.281075 0.281075 0.630000
v 0.289661 -0.117271 0.000000
v 0.289661 -0.117271 0.550000
v 0.289661 0.117271 0.000000
v 0.289661 0.117271 0.550000
v 0.302280 -0.079267 0.000000
v 0.302280 -0.079267 0.550000
v 0.302280 0.079267 0.000000
v 0.302280 0.079267 0.550000
v 0.309934 -0.039962 0.000000
v 0.309934 -0.039962 0.550000
v 0.309934 0.039962 0.000000
v 0.309934 0.039962 0.550000
v 0.310778 -0.247837 0.550000
v 0.310778 -0.247837 0.630000
v 0.310778 0.247837 0.550000
v 0.310778 0.247837 0.630000
v 0.312500 0.000000 0.000000
v 0.312500 0.000000 0.550000
v 0.336573 -0.211483 0.550000
v 0.336573 -0.211483 0.630000
v 0.336573 0.211483 0.550000
v 0.336573 0.211483 0.630000
v 0.358135 -0.172469 0.550000
v 0.358135 -0.172469 0.630000
v 0.358135 0.172469 0.550000
v 0.358135 0.172469 0.630000
v 0.375194 -0.131286 0.550000
v 0.375194 -0.131286 0.630000
v 0.375194 0.131286 0.550000
v 0.375194 0.131286 0.630000
v 0.387534 -0.088452 0.550000
v 0.387534 -0.088452 0.630000
v 0.387534 0.088452 0.550000
v 0.387534 0.088452 0.630000
v 0.395001 -0.044506 0.550000
v 0.395001 -0.044506 0.630000
v 0.395001 0.044506 0.550000
v 0.395001 0.044506 0.630000
v 0.397500 0.000000 0.550000
v 0.397500 0.000000 0.630000
vt -1.009650 0.000000 0.000000
vt -1.003302 -0.113045 0.000000
vt -0.984336 -0.224668 0.000000
vt -0.952992 -0.333466 0.000000
vt -0.909663 -0.438071 0.000000
vt -0.854895 -0.537166 0.000000
vt -0.789376 -0.629506 0.000000
vt -0.713930 -0.713930 0.000000
vt -0.629506 -0.789376 0.000000
vt -0.537166 -0.854895 0.000000
vt -0.438071 -0.909663 0.000000
vt -0.333466 -0.952992 0.000000
vt -0.224668 -0.984336 0.000000
vt -0.113045 -1.003302 0.000000
vt -0.000000 -1.009650 0.000000
vt 0.113045 -1.003302 0.000000
vt 0.224668 -0.984336 0.000000
vt 0.333466 -0.952992 0.000000
vt 0.438071 -0.909663 0.000000
vt 0.537166 -0.854895 0.000000
vt 0.629506 -0.789376 0.000000
vt 0.713930 -0.713930 0.000000
vt 0.789376 -0.629506 0.000000
vt 0.854895 -0.537166 0.000000
vt 0.909663 -0.438071 0.000000
vt 0.952992 -0.333466 0.000000
vt 0.984336 -0.224668 0.000000
vt 1.003302 -0.113045 0.000000
vt 1.009650 0.000000 0.000000
vt 1.003302 0.113045 0.000000
vt 0.984336 0.224668 0.000000
vt 0.952992 0.333466 0.000000
vt 0.909663 0.438071 0.000000
vt 0.854895 0.537166 0.000000
vt 0.789376 0.629506 0.000000
vt 0.713930 0.713930 0.000000
vt 0.629506 0.789376 0.000000
vt 0.537166 0.854895 0.000000
vt 0.438071 0.909663 0.000000
vt 0.333466 0.952992 0.000000
vt 0.224668 0.984336 0.000000
vt 0.113045 1.003302 0.000000
vt -0.000000 1.009650 0.000000
vt -0.113045 1.003302 0.000000
vt -0.224668 0.984336 0.000000
vt -0.333466 0.952992 0.000000
vt -0.438071 0.909663 0.000000
vt -0.537166 0.854895 0.000000
vt -0.629506 0.789376 0.000000
vt -0.713930 0.713930 0.000000
vt -0.789376 0.629506 0.000000
vt -0.854895 0.537166 0.000000
vt -0.909663 0.438071 0.000000
vt -0.952992 0.333466 0.000000
vt -0.984336 0.224668 0.000000
vt -1.003302 0.113045 0.000000
vt -0.793750 0.000000 0.000000
vt -0.787233 0.101503 0.000000
vt -0.767790 0.201338 0.000000
vt -0.735740 0.297868 0.000000
vt -0.691609 0.389507 0.000000
vt -0.636122 0.474750 0.000000
vt -0.570190 0.552198 0.000000
vt -0.494895 0.620579 0.000000
vt -0.411474 0.678770 0.000000
vt -0.321297 0.725815 0.000000
vt -0.225844 0.760943 0.000000
vt -0.126682 0.783576 0.000000
vt -0.025441 0.793342 0.000000
vt 0.076218 0.790082 0.000000
vt 0.176626 0.773849 0.000000
vt 0.274134 0.744909 0.000000
vt 0.367140 0.703738 0.000000
vt 0.454118 0.651012 0.000000
vt 0.533639 0.587596 0.000000
vt 0.604398 0.514531 0.000000
vt 0.665232 0.433018 0.000000
vt 0.715144 0.344395 0.000000
vt 0.753313 0.250117 0.000000
vt 0.779113 0.151732 0.000000
vt 0.792119 0.050856 0.000000
vt 0.792119 -0.050856 0.000000
vt 0.779113 -0.151732 0.000000
vt 0.753313 -0.250117 0.000000
vt 0.715144 -0.344395 0.000000
vt 0.665232 -0.433018 0.000000
vt 0.604398 -0.514531 0.000000
vt 0.533639 -0.587596 0.000000
vt 0.454118 -0.651012 0.000000
vt 0.367140 -0.703738 0.000000
vt 0.274134 -0.744909 0.000000
vt 0.176626 -0.773849 0.000000
vt 0.076218 -0.790082 0.000000
vt -0.025441 -0.793342 0.000000
vt -0.126682 -0.783576 0.000000
vt -0.225844 -0.760943 0.000000
vt -0.321297 -0.725815 0.000000
vt -0.411474 -0.678770 0.000000
vt -0.494895 -0.620579 0.000000
vt -0.570190 -0.552198 0.000000
vt -0.636122 -0.474750 0.000000
vt -0.691609 -0.389507 0.000000
vt -0.735740 -0.297868 0.000000
vt -0.767790 -0.201338 0.000000
vt -0.787233 -0.101503 0.000000
vt -0.203200 3.171909 0.000000
vt -0.203200 3.058627 0.000000
vt -0.203200 2.945344 0.000000
vt -0.203200 2.832062 0.000000
vt -0.203200 2.718779 0.000000
vt -0.203200 2.605497 0.000000
vt -0.203200 2.492214 0.000000
vt -0.203200 2.378932 0.000000
vt -0.203200 2.265649 0.000000
vt -0.203200 2.152367 0.000000
vt -0.203200 2.039084 0.000000
vt -0.203200 1.925802 0.000000
vt -0.203200 1.812519 0.000000
vt -0.203200 1.699237 0.000000
vt -0.203200 1.585955 0.000000
vt -0.203200 1.472672 0.000000
vt -0.203200 1.359390 0.000000
vt -0.203200 1.246107 0.000000
vt -0.203200 1.132825 0.000000
vt -0.203200 1.019542 0.000000
vt -0.203200 0.906260 0.000000
vt -0.203200 0.792977 0.000000
vt -0.203200 0.679695 0.000000
vt -0.203200 0.566412 0.000000
vt -0.203200 0.453130 0.000000
vt -0.203200 0.339847 0.000000
vt -0.203200 0.226565 0.000000
vt -0.203200 0.113282 0.000000
vt -0.203200 0.000000 0.000000
vt -0.203200 -0.113282 0.000000
vt -0.203200 -0.226565 0.000000
vt -0.203200 -0.339847 0.000000
vt -0.203200 -0.453130 0.000000
vt -0.203200 -0.566412 0.000000
vt -0.203200 -0.679695 0.000000
vt -0.203200 -0.792977 0.000000
vt -0.203200 -0.906260 0.000000
vt -0.203200 -1.019542 0.000000
vt -0.203200 -1.132825 0.000000
vt -0.203200 -1.246107 0.000000
vt -0.203200 -1.359390 0.000000
vt -0.203200 -1.472672 0.000000
vt -0.203200 -1.585955 0.000000
vt -0.203200 -1.699237 0.000000
vt -0.203200 -1.812519 0.000000
vt -0.203200 -1.925802 0.000000
vt -0.203200 -2.039084 0.000000
vt -0.203200 -2.152367 0.000000
vt -0.203200 -2.265649 0.000000
vt -0.203200 -2.378932 0.000000
vt -0.203200 -2.492214 0.000000
vt -0.203200 -2.605497 0.000000
vt -0.203200 -2.718779 0.000000
vt -0.203200 -2.832062 0.000000
vt -0.203200 -2.945344 0.000000
vt -0.203200 -3.058627 0.000000
vt -0.000000 -3.171909 0.000000
vt -0.000000 -3.058627 0.000000
vt -0.000000 -2.945344 0.000000
vt -0.000000 -2.832062 0.000000
vt -0.000000 -2.718779 0.000000
vt -0.000000 -2.605497 0.000000
vt -0.000000 -2.492214 0.000000
vt -0.000000 -2.378932 0.000000
vt -0.000000 -2.265649 0.000000
vt -0.000000 -2.152367 0.000000
vt -0.000000 -2.039084 0.000000
vt -0.000000 -1.925802 0.000000
vt -0.000000 -1.812519 0.000000
vt -0.000000 -1.699237 0.000000
vt -0.000000 -1.585955 0.000000
vt -0.000000 -1.472672 0.000000
vt -0.000000 -1.359390 0.000000
vt -0.000000 -1.246107 0.000000
vt -0.000000 -1.132825 0.000000
vt -0.000000 -1.019542 0.000000
vt -0.000000 -0.906260 0.000000
vt -0.000000 -0.792977 0.000000
vt -0.000000 -0.679695 0.000000
vt -0.000000 -0.566412 0.000000
vt -0.000000 -0.453130 0.000000
vt -0.000000 -0.339847 0.000000
vt -0.000000 -0.226565 0.000000
vt -0.000000 -0.113282 0.000000
vt -0.000000 0.000000 0.000000
vt -0.000000 0.113282 0.000000
vt -0.000000 0.226565 0.000000
vt -0.000000 0.339847 0.000000
vt -0.000000 0.453130 0.000000
vt -0.000000 0.566412 0.000000
vt -0.000000 0.679695 0.000000
vt -0.000000 0.792977 0.000000
vt -0.000000 0.906260 0.000000
vt -0.000000 1.019542 0.000000
vt -0.000000 1.132825 0.000000
vt -0.000000 1.246107 0.000000
vt -0.000000 1.359390 0.000000
vt -0.000000 1.472672 0.000000
vt -0.000000 1.585955 0.000000
vt -0.000000 1.699237 0.000000
vt -0.000000 1.812519 0.000000
vt -0.000000 1.925802 0.000000
vt -0.000000 2.039084 0.000000
vt -0.000000 2.152367 0.000000
vt -0.000000 2.265649 0.000000
vt -0.000000 2.378932 0.000000
vt -0.000000 2.492214 0.000000
vt -0.000000 2.605497 0.000000
vt -0.000000 2.718779 0.000000
vt -0.000000 2.832062 0.000000
vt -0.000000 2.945344 0.000000
vt -0.000000 3.058627 0.000000
vt -0.000000 3.171909 0.000000
vt -0.203200 -3.171909 0.000000
vt 1.009650 0.000000 0.000000
vt 1.003302 0.113045 0.000000
vt 0.984336 0.224668 0.000000
vt 0.952992 0.333466 0.000000
vt 0.909663 0.438071 0.000000
vt 0.854895 0.537166 0.000000
vt 0.789376 0.629506 0.000000
vt 0.713930 0.713930 0.000000
vt 0.629506 0.789376 0.000000
vt 0.537166 0.854895 0.000000
vt 0.438071 0.909663 0.000000
vt 0.333466 0.952992 0.000000
vt 0.224668 0.984336 0.000000
vt 0.113045 1.003302 0.000000
vt 0.000000 1.009650 0.000000
vt -0.113045 1.003302 0.000000
vt -0.224668 0.984336 0.000000
vt -0.333466 0.952992 0.000000
vt -0.438071 0.909663 0.000000
vt -0.537166 0.854895 0.000000
vt -0.629506 0.789376 0.000000
vt -0.713930 0.713930 0.000000
vt -0.789376 0.629506 0.000000
vt -0.854895 0.537166 0.000000
vt -0.909663 0.438071 0.000000
vt -0.952992 0.333466 0.000000
vt -0.984336 0.224668 0.000000
vt -1.003302 0.113045 0.000000
vt -1.009650 0.000000 0.000000
vt -1.003302 -0.113045 0.000000
vt -0.984336 -0.224668 0.000000
vt -0.952992 -0.333466 0.000000
vt -0.909663 -0.438071 0.000000
vt -0.854895 -0.537166 0.000000
vt -0.789376 -0.629506 0.000000
vt -0.713930 -0.713930 0.000000
vt -0.629506 -0.789376 0.000000
vt -0.537166 -0.854895 0.000000
vt -0.438071 -0.909663 0.000000
vt -0.333466 -0.952992 0.000000
vt -0.224668 -0.984336 0.000000
vt -0.113045 -1.003302 0.000000
vt 0.000000 -1.009650 0.000000
vt 0.113045 -1.003302 0.000000
vt 0.224668 -0.984336 0.000000
vt 0.333466 -0.952992 0.000000
vt 0.438071 -0.909663 0.000000
vt 0.537166 -0.854895 0.000000
vt 0.629506 -0.789376 0.000000
vt 0.713930 -0.713930 0.000000
vt 0.789376 -0.629506 0.000000
vt 0.854895 -0.537166 0.000000
vt 0.909663 -0.438071 0.000000
vt 0.952992 -0.333466 0.000000
vt 0.984336 -0.224668 0.000000
vt 1.003302 -0.113045 0.000000
vt -1.397000 2.493639 0.000000
vt -1.397000 2.391858 0.000000
vt -1.397000 2.290077 0.000000
vt -1.397000 2.188296 0.000000
vt -1.397000 2.086514 0.000000
vt -1.397000 1.984733 0.000000
vt -1.397000 1.882952 0.000000
vt -1.397000 1.781171 0.000000
vt -1.397000 1.679390 0.000000
vt -1.397000 1.577608 0.000000
vt -1.397000 1.475827 0.000000
vt -1.397000 1.374046 0.000000
vt -1.397000 1.272265 0.000000
vt -1.397000 1.170484 0.000000
vt -1.397000 1.068702 0.000000
vt -1.397000 0.966921 0.000000
vt -1.397000 0.865140 0.000000
vt -1.397000 0.763359 0.000000
vt -1.397000 0.661578 0.000000
vt -1.397000 0.559797 0.000000
vt -1.397000 0.458015 0.000000
vt -1.397000 0.356234 0.000000
vt -1.397000 0.254453 0.000000
vt -1.397000 0.152672 0.000000
vt -1.397000 0.050891 0.000000
vt -1.397000 -0.050891 0.000000
vt -1.397000 -0.152672 0.000000
vt -1.397000 -0.254453 0.000000
vt -1.397000 -0.356234 0.000000
vt -1.397000 -0.458015 0.000000
vt -1.397000 -0.559797 0.000000
vt -1.397000 -0.661578 0.000000
vt -1.397000 -0.763359 0.000000
vt -1.397000 -0.865140 0.000000
vt -1.397000 -0.966921 0.000000
vt -1.397000 -1.068702 0.000000
vt -1.397000 -1.170484 0.000000
vt -1.397000 -1.272265 0.000000
vt -1.397000 -1.374046 0.000000
vt -1.397000 -1.475827 0.000000
vt -1.397000 -1.577608 0.000000
vt -1.397000 -1.679390 0.000000
vt -1.397000 -1.781171 0.000000
vt -1.397000 -1.882952 0.000000
vt -1.397000 -1.984733 0.000000
vt -1.397000 -2.086514 0.000000
vt -1.397000 -2.188296 0.000000
vt -1.397000 -2.290077 0.000000
vt -1.397000 -2.391858 0.000000
vt -0.000000 -2.493639 0.000000
vt -0.000000 -2.391858 0.000000
vt -0.000000 -2.290077 0.000000
vt -0.000000 -2.188296 0.000000
vt -0.000000 -2.086514 0.000000
vt -0.000000 -1.984733 0.000000
vt -0.000000 -1.882952 0.000000
vt -0.000000 -1.781171 0.000000
vt -0.000000 -1.679390 0.000000
vt -0.000000 -1.577608 0.000000
vt -0.000000 -1.475827 0.000000
vt -0.000000 -1.374046 0.000000
vt -0.000000 -1.272265 0.000000
vt -0.000000 -1.170484 0.000000
vt -0.000000 -1.068702 0.000000
vt -0.000000 -0.966921 0.000000
vt -0.000000 -0.865140 0.000000
vt -0.000000 -0.763359 0.000000
vt -0.000000 -0.661578 0.000000
vt -0.000000 -0.559797 0.000000
vt -0.000000 -0.458015 0.000000
vt -0.000000 -0.356234 0.000000
vt -0.000000 -0.254453 0.000000
vt -0.000000 -0.152672 0.000000
vt -0.000000 -0.050891 0.000000
vt -0.000000 0.050891 0.000000
vt -0.000000 0.152672 0.000000
vt -0.000000 0.254453 0.000000
vt -0.000000 0.356234 0.000000
vt -0.000000 0.458015 0.000000
vt -0.000000 0.559797 0.000000
vt -0.000000 0.661578 0.000000
vt -0.000000 0.763359 0.000000
vt -0.000000 0.865140 0.000000
vt -0.000000 0.966921 0.000000
vt -0.000000 1.068702 0.000000
vt -0.000000 1.170484 0.000000
vt -0.000000 1.272265 0.000000
vt -0.000000 1.374046 0.000000
vt -0.000000 1.475827 0.000000
vt -0.000000 1.577608 0.000000
vt -0.000000 1.679390 0.000000
vt -0.000000 1.781171 0.000000
vt -0.000000 1.882952 0.000000
vt -0.000000 1.984733 0.000000
vt -0.000000 2.086514 0.000000
vt -0.000000 2.188296 0.000000
vt -0.000000 2.290077 0.000000
vt -0.000000 2.391858 0.000000
vt -0.000000 2.493639 0.000000
vt -1.397000 -2.493639 0.000000
vt -0.793750 0.000000 0.000000
vt -0.787233 -0.101503 0.000000
vt -0.767790 -0.201338 0.000000
vt -0.735740 -0.297868 0.000000
vt -0.691609 -0.389507 0.000000
vt -0.636122 -0.474750 0.000000
vt -0.570190 -0.552198 0.000000
vt -0.494895 -0.620579 0.000000
vt -0.411474 -0.678770 0.000000
vt -0.321297 -0.725815 0.000000
vt -0.225844 -0.760943 0.000000
vt -0.126682 -0.783576 0.000000
vt -0.025441 -0.793342 0.000000
vt 0.076218 -0.790082 0.000000
vt 0.176626 -0.773849 0.000000
vt 0.274134 -0.744909 0.000000
vt 0.367140 -0.703738 0.000000
vt 0.454118 -0.651012 0.000000
vt 0.533639 -0.587596 0.000000
vt 0.604398 -0.514531 0.000000
vt 0.665232 -0.433018 0.000000
vt 0.715144 -0.344395 0.000000
vt 0.753313 -0.250117 0.000000
vt 0.779113 -0.151732 0.000000
vt 0.792119 -0.050856 0.000000
vt 0.792119 0.050856 0.000000
vt 0.779113 0.151732 0.000000
vt 0.753313 0.250117 0.000000
vt 0.715144 0.344395 0.000000
vt 0.665232 0.433018 0.000000
vt 0.604398 0.514531 0.000000
vt 0.533639 0.587596 0.000000
vt 0.454118 0.651012 0.000000
vt 0.367140 0.703738 0.000000
vt 0.274134 0.744909 0.000000
vt 0.176626 0.773849 0.000000
vt 0.076218 0.790082 0.000000
vt -0.025441 0.793342 0.000000
vt -0.126682 0.783576 0.000000
vt -0.225844 0.760943 0.000000
vt -0.321297 0.725815 0.000000
vt -0.411474 0.678770 0.000000
vt -0.494895 0.620579 0.000000
vt -0.570190 0.552198 0.000000
vt -0.636122 0.474750 0.000000
vt -0.691609 0.389507 0.000000
vt -0.735740 0.297868 0.000000
vt -0.767790 0.201338 0.000000
vt -0.787233 0.101503 0.000000
vn 0.000000 0.000000 -2.540000
vn 0.000000 0.000000 -2.540000
vn 0.000000 0.000000 -2.540000
vn 0.000000 0.000000 -2.540000
vn 0.000000 0.000000 -2.540000
vn 0.000000 0.000000 -2.540000
vn 0.000000 0.000000 -2.540000
vn 0.000000 0.000000 -2.540000
vn 0.000000 0.000000 -2.540000
vn 0.000000 0.000000 -2.540000
vn 0.000000 0.000000 -2.540000
vn 0.000000 0.000000 -2.540000
vn 0.000000 0.000000 -2.540000
vn 0.000000 0.000000 -2.540000
vn 0.000000 0.000000 -2.540000
vn 0.000000 0.000000 -2.540000
vn 0.000000 0.000000 -2.540000
vn 0.000000 0.000000 -2.540000
vn 0.000000 0.000000 -2.540000
vn 0.000000 0.000000 -2.540000
vn 0.000000 0.000000 -2.540000
vn 0.000000 0.000000 -2.540000
vn 0.000000 0.000000 -2.540000
vn 0.000000 0.000000 -2.540000
vn 0.000000 0.000000 -2.540000
vn 0.000000 0.000000 -2.540000
vn 0.000000 0.000000 -2.540000
vn 0.000000 0.000000 -2.540000
vn 0.000000 0.000000 -2.540000
vn 0.000000 0.000000 -2.540000
vn 0.000000 0.000000 -2.540000
vn 0.000000 0.000000 -2.540000
vn 0.000000 0.000000 -2.540000
vn 0.000000 0.000000 -2.540000
vn 0.000000 0.000000 -2.540000
vn 0.000000 0.000000 -2.540000
vn 0.000000 0.000000 -2.540000
vn 0.000000 0.000000 -2.540000
vn 0.000000 0.000000 -2.540000
vn 0.000000 0.000000 -2.540000
vn 0.000000 0.000000 -2.540000
vn 0.000000 0.000000 -2.540000
vn 0.000000 0.000000 -2.540000
vn 0.000000 0.000000 -2.540000
vn 0.000000 0.000000 -2.540000
vn 0.000000 0.000000 -2.540000
vn 0.000000 0.000000 -2.540000
vn 0.000000 0.000000 -2.540000
vn 0.000000 0.000000 -2.540000
vn 0.000000 0.000000 -2.540000
vn 0.000000 0.000000 -2.540000
vn 0.000000 0.000000 -2.540000
vn 0.000000 0.000000 -2.540000
vn 0.000000 0.000000 -2.540000
vn 0.000000 0.000000 -2.540000
vn 0.000000 0.000000 -2.540000
vn 0.000000 0.000000 -2.540000
vn 0.000000 0.000000 -2.540000
vn 0.000000 0.000000 -2.540000
vn 0.000000 0.000000 -2.540000
vn 0.000000 0.000000 -2.540000
vn 0.000000 0.000000 -2.540000
vn 0.000000 0.000000 -2.540000
vn 0.000000 0.000000 -2.540000
vn 0.000000 0.000000 -2.540000
vn 0.000000 0.000000 -2.540000
vn 0.000000 0.000000 -2.540000
vn 0.000000 0.000000 -2.540000
vn 0.000000 0.000000 -2.540000
vn 0.000000 0.000000 -2.540000
vn 0.000000 0.000000 -2.540000
vn 0.000000 0.000000 -2.540000
vn 0.000000 0.000000 -2.540000
vn 0.000000 0.000000 -2.540000
vn 0.000000 0.000000 -2.540000
vn 0.000000 0.000000 -2.540000
vn 0.000000 0.000000 -2.540000
vn 0.000000 0.000000 -2.540000
vn 0.000000 0.000000 -2.540000
vn 0.000000 0.000000 -2.540000
vn 0.000000 0.000000 -2.540000
vn 0.000000 0.000000 -2.540000
vn 0.000000 0.000000 -2.540000
vn 0.000000 0.000000 -2.540000
vn 0.000000 0.000000 -2.540000
vn 0.000000 0.000000 -2.540000
vn 0.000000 0.000000 -2.540000
vn 0.000000 0.000000 -2.540000
vn 0.000000 0.000000 -2.540000
vn 0.000000 0.000000 -2.540000
vn 0.000000 0.000000 -2.540000
vn 0.000000 0.000000 -2.540000
vn 0.000000 0.000000 -2.540000
vn 0.000000 0.000000 -2.540000
vn 0.000000 0.000000 -2.540000
vn 0.000000 0.000000 -2.540000
vn 0.000000 0.000000 -2.540000
vn 0.000000 0.000000 -2.540000
vn 0.000000 0.000000 -2.540000
vn 0.000000 0.000000 -2.540000
vn 0.000000 0.000000 -2.540000
vn 0.000000 0.000000 -2.540000
vn 0.000000 0.000000 -2.540000
vn 0.000000 0.000000 -2.540000
vn 0.000000 0.000000 -2.540000
vn 2.540000 0.000000 0.000000
vn 2.524029 -0.284390 0.000000
vn 2.476317 -0.565203 0.000000
vn 2.397464 -0.838909 0.000000
vn 2.288461 -1.102065 0.000000
vn 2.150679 -1.351361 0.000000
vn 1.985852 -1.583664 0.000000
vn 1.796051 -1.796051 0.000000
vn 1.583664 -1.985852 0.000000
vn 1.351361 -2.150679 0.000000
vn 1.102065 -2.288461 0.000000
vn 0.838909 -2.397464 0.000000
vn 0.565203 -2.476317 0.000000
vn 0.284390 -2.524029 0.000000
vn 0.000000 -2.540000 0.000000
vn -0.284390 -2.524029 0.000000
vn -0.565203 -2.476317 0.000000
vn -0.838909 -2.397464 0.000000
vn -1.102065 -2.288461 0.000000
vn -1.351361 -2.150679 0.000000
vn -1.583664 -1.985852 0.000000
vn -1.796051 -1.796051 0.000000
vn -1.985852 -1.583664 0.000000
vn -2.150679 -1.351361 0.000000
vn -2.288461 -1.102065 0.000000
vn -2.397464 -0.838909 0.000000
vn -2.476317 -0.565203 0.000000
vn -2.524029 -0.284390 0.000000
vn -2.540000 0.000000 0.000000
vn -2.524029 0.284390 0.000000
vn -2.476317 0.565203 0.000000
vn -2.397464 0.838909 0.000000
vn -2.288461 1.102065 0.000000
vn -2.150679 1.351361 0.000000
vn -1.985852 1.583664 0.000000
vn -1.796051 1.796051 0.000000
vn -1.583664 1.985852 0.000000
vn -1.351361 2.150679 0.000000
vn -1.102065 2.288461 0.000000
vn -0.838909 2.397464 0.000000
vn -0.565203 2.476317 0.000000
vn -0.284390 2.524029 0.000000
vn 0.000000 2.540000 0.000000
vn 0.284390 2.524029 0.000000
vn 0.565203 2.476317 0.000000
vn 0.838909 2.397464 0.000000
vn 1.102065 2.288461 0.000000
vn 1.351361 2.150679 0.000000
vn 1.583664 1.985852 0.000000
vn 1.796051 1.796051 0.000000
vn 1.985852 1.583664 0.000000
vn 2.150679 1.351361 0.000000
vn 2.288461 1.102065 0.000000
vn 2.397464 0.838909 0.000000
vn 2.476317 0.565203 0.000000
vn 2.524029 0.284390 0.000000
vn 2.540000 0.000000 0.000000
vn 2.524029 0.284390 0.000000
vn 2.476317 0.565203 0.000000
vn 2.397464 0.838909 0.000000
vn 2.288461 1.102065 0.000000
vn 2.150679 1.351361 0.000000
vn 1.985852 1.583664 0.000000
vn 1.796051 1.796051 0.000000
vn 1.583664 1.985852 0.000000
vn 1.351361 2.150679 0.000000
vn 1.102065 2.288461 0.000000
vn 0.838909 2.397464 0.000000
vn 0.565203 2.476317 0.000000
vn 0.284390 2.524029 0.000000
vn 0.000000 2.540000 0.000000
vn -0.284390 2.524029 0.000000
vn -0.565203 2.476317 0.000000
vn -0.838909 2.397464 0.000000
vn -1.102065 2.288461 0.000000
vn -1.351361 2.150679 0.000000
vn -1.583664 1.985852 0.000000
vn -1.796051 1.796051 0.000000
vn -1.985852 1.583664 0.000000
vn -2.150679 1.351361 0.000000
vn -2.288461 1.102065 0.000000
vn -2.397464 0.838909 0.000000
vn -2.476317 0.565203 0.000000
vn -2.524029 0.284390 0.000000
vn -2.540000 0.000000 0.000000
vn -2.524029 -0.284390 0.000000
vn -2.476317 -0.565203 0.000000
vn -2.397464 -0.838909 0.000000
vn -2.288461 -1.102065 0.000000
vn -2.150679 -1.351361 0.000000
vn -1.985852 -1.583664 0.000000
vn -1.796051 -1.796051 0.000000
vn -1.583664 -1.985852 0.000000
vn -1.351361 -2.150679 0.000000
vn -1.102065 -2.288461 0.000000
vn -0.838909 -2.397464 0.000000
vn -0.565203 -2.476317 0.000000
vn -0.284390 -2.524029 0.000000
vn 0.000000 -2.540000 0.000000
vn 0.284390 -2.524029 0.000000
vn 0.565203 -2.476317 0.000000
vn 0.838909 -2.397464 0.000000
vn 1.102065 -2.288461 0.000000
vn 1.351361 -2.150679 0.000000
vn 1.583664 -1.985852 0.000000
vn 1.796051 -1.796051 0.000000
vn 1.985852 -1.583664 0.000000
vn 2.150679 -1.351361 0.000000
vn 2.288461 -1.102065 0.000000
vn 2.397464 -0.838909 0.000000
vn 2.476317 -0.565203 0.000000
vn 2.524029 -0.284390 0.000000
vn 2.540000 0.000000 0.000000
vn 2.540000 0.000000 0.000000
vn 0.000000 0.000000 2.540000
vn 0.000000 0.000000 2.540000
vn 0.000000 0.000000 2.540000
vn 0.000000 0.000000 2.540000
vn 0.000000 0.000000 2.540000
vn 0.000000 0.000000 2.540000
vn 0.000000 0.000000 2.540000
vn 0.000000 0.000000 2.540000
vn 0.000000 0.000000 2.540000
vn 0.000000 0.000000 2.540000
vn 0.000000 0.000000 2.540000
vn 0.000000 0.000000 2.540000
vn 0.000000 0.000000 2.540000
vn 0.000000 0.000000 2.540000
vn 0.000000 0.000000 2.540000
vn 0.000000 0.000000 2.540000
vn 0.000000 0.000000 2.540000
vn 0.000000 0.000000 2.540000
vn 0.000000 0.000000 2.540000
vn 0.000000 0.000000 2.540000
vn 0.000000 0.000000 2.540000
vn 0.000000 0.000000 2.540000
vn 0.000000 0.000000 2.540000
vn 0.000000 0.000000 2.540000
vn 0.000000 0.000000 2.540000
vn 0.000000 0.000000 2.540000
vn 0.000000 0.000000 2.540000
vn 0.000000 0.000000 2.540000
vn 0.000000 0.000000 2.540000
vn 0.000000 0.000000 2.540000
vn 0.000000 0.000000 2.540000
vn 0.000000 0.000000 2.540000
vn 0.000000 0.000000 2.540000
vn 0.000000 0.000000 2.540000
vn 0.000000 0.000000 2.540000
vn 0.000000 0.000000 2.540000
vn 0.000000 0.000000 2.540000
vn 0.000000 0.000000 2.540000
vn 0.000000 0.000000 2.540000
vn 0.000000 0.000000 2.540000
vn 0.000000 0.000000 2.540000
vn 0.000000 0.000000 2.540000
vn 0.000000 0.000000 2.540000
vn 0.000000 0.000000 2.540000
vn 0.000000 0.000000 2.540000
vn 0.000000 0.000000 2.540000
vn 0.000000 0.000000 2.540000
vn 0.000000 0.000000 2.540000
vn 0.000000 0.000000 2.540000
vn 0.000000 0.000000 2.540000
vn 0.000000 0.000000 2.540000
vn 0.000000 0.000000 2.540000
vn 0.000000 0.000000 2.540000
vn 0.000000 0.000000 2.540000
vn 0.000000 0.000000 2.540000
vn 0.000000 0.000000 2.540000
vn 2.540000 0.000000 0.000000
vn 2.519147 -0.324808 0.000000
vn 2.456929 -0.644283 0.000000
vn 2.354369 -0.953178 0.000000
vn 2.213149 -1.246423 0.000000
vn 2.035591 -1.519201 0.000000
vn 1.824607 -1.767034 0.000000
vn 1.583664 -1.985852 0.000000
vn 1.316717 -2.172063 0.000000
vn 1.028150 -2.322608 0.000000
vn 0.722700 -2.435016 0.000000
vn 0.405384 -2.507442 0.000000
vn 0.081411 -2.538695 0.000000
vn -0.243898 -2.528263 0.000000
vn -0.565203 -2.476317 0.000000
vn -0.877227 -2.383710 0.000000
vn -1.174847 -2.251962 0.000000
vn -1.453176 -2.083238 0.000000
vn -1.707644 -1.880306 0.000000
vn -1.934073 -1.646500 0.000000
vn -2.128744 -1.385659 0.000000
vn -2.288461 -1.102065 0.000000
vn -2.410602 -0.800375 0.000000
vn -2.493160 -0.485543 0.000000
vn -2.534781 -0.162738 0.000000
vn -2.534781 0.162738 0.000000
vn -2.493160 0.485543 0.000000
vn -2.410602 0.800375 0.000000
vn -2.288461 1.102065 0.000000
vn -2.128744 1.385659 0.000000
vn -1.934073 1.646500 0.000000
vn -1.707644 1.880306 0.000000
vn -1.453176 2.083238 0.000000
vn -1.174847 2.251962 0.000000
vn -0.877227 2.383710 0.000000
vn -0.565203 2.476317 0.000000
vn -0.243898 2.528263 0.000000
vn 0.081411 2.538695 0.000000
vn 0.405384 2.507442 0.000000
vn 0.722700 2.435016 0.000000
vn 1.028150 2.322608 0.000000
vn 1.316717 2.172063 0.000000
vn 1.583664 1.985852 0.000000
vn 1.824607 1.767034 0.000000
vn 2.035591 1.519201 0.000000
vn 2.213149 1.246423 0.000000
vn 2.354369 0.953178 0.000000
vn 2.456929 0.644283 0.000000
vn 2.519147 0.324808 0.000000
vn 2.540000 0.000000 0.000000
vn 2.519147 0.324808 0.000000
vn 2.456929 0.644283 0.000000
vn 2.354369 0.953178 0.000000
vn 2.213149 1.246423 0.000000
vn 2.035591 1.519201 0.000000
vn 1.824607 1.767034 0.000000
vn 1.583664 1.985852 0.000000
vn 1.316717 2.172063 0.000000
vn 1.028150 2.322608 0.000000
vn 0.722700 2.435016 0.000000
vn 0.405384 2.507442 0.000000
vn 0.081411 2.538695 0.000000
vn -0.243898 2.528263 0.000000
vn -0.565203 2.476317 0.000000
vn -0.877227 2.383710 0.000000
vn -1.174847 2.251962 0.000000
vn -1.453176 2.083238 0.000000
vn -1.707644 1.880306 0.000000
vn -1.934073 1.646500 0.000000
vn -2.128744 1.385659 0.000000
vn -2.288461 1.102065 0.000000
vn -2.410602 0.800375 0.000000
vn -2.493160 0.485543 0.000000
vn -2.534781 0.162738 0.000000
vn -2.534781 -0.162738 0.000000
vn -2.493160 -0.485543 0.000000
vn -2.410602 -0.800375 0.000000
vn -2.288461 -1.102065 0.000000
vn -2.128744 -1.385659 0.000000
vn -1.934073 -1.646500 0.000000
vn -1.707644 -1.880306 0.000000
vn -1.453176 -2.083238 0.000000
vn -1.174847 -2.251962 0.000000
vn -0.877227 -2.383710 0.000000
vn -0.565203 -2.476317 0.000000
vn -0.243898 -2.528263 0.000000
vn 0.081411 -2.538695 0.000000
vn 0.405384 -2.507442 0.000000
vn 0.722700 -2.435016 0.000000
vn 1.028150 -2.322608 0.000000
vn 1.316717 -2.172063 0.000000
vn 1.583664 -1.985852 0.000000
vn 1.824607 -1.767034 0.000000
vn 2.035591 -1.519201 0.000000
vn 2.213149 -1.246423 0.000000
vn 2.354369 -0.953178 0.000000
vn 2.456929 -0.644283 0.000000
vn 2.519147 -0.324808 0.000000
vn 2.540000 0.000000 0.000000
vn 2.540000 0.000000 0.000000
vn 0.000000 0.000000 -2.540000
vn 0.000000 0.000000 -2.540000
vn 0.000000 0.000000 -2.540000
vn 0.000000 0.000000 -2.540000
vn 0.000000 0.000000 -2.540000
vn 0.000000 0.000000 -2.540000
vn 0.000000 0.000000 -2.540000
vn 0.000000 0.000000 -2.540000
vn 0.000000 0.000000 -2.540000
vn 0.000000 0.000000 -2.540000
vn 0.000000 0.000000 -2.540000
vn 0.000000 0.000000 -2.540000
vn 0.000000 0.000000 -2.540000
vn 0.000000 0.000000 -2.540000
vn 0.000000 0.000000 -2.540000
vn 0.000000 0.000000 -2.540000
vn 0.000000 0.000000 -2.540000
vn 0.000000 0.000000 -2.540000
vn 0.000000 0.000000 -2.540000
vn 0.000000 0.000000 -2.540000
vn 0.000000 0.000000 -2.540000
vn 0.000000 0.000000 -2.540000
vn 0.000000 0.000000 -2.540000
vn 0.000000 0.000000 -2.540000
vn 0.000000 0.000000 -2.540000
vn 0.000000 0.000000 -2.540000
vn 0.000000 0.000000 -2.540000
vn 0.000000 0.000000 -2.540000
vn 0.000000 0.000000 -2.540000
vn 0.000000 0.000000 -2.540000
vn 0.000000 0.000000 -2.540000
vn 0.000000 0.000000 -2.540000
vn 0.000000 0.000000 -2.540000
vn 0.000000 0.000000 -2.540000
vn 0.000000 0.000000 -2.540000
vn 0.000000 0.000000 -2.540000
vn 0.000000 0.000000 -2.540000
vn 0.000000 0.000000 -2.540000
vn 0.000000 0.000000 -2.540000
vn 0.000000 0.000000 -2.540000
vn 0.000000 0.000000 -2.540000
vn 0.000000 0.000000 -2.540000
vn 0.000000 0.000000 -2.540000
vn 0.000000 0.000000 -2.540000
vn 0.000000 0.000000 -2.540000
vn 0.000000 0.000000 -2.540000
vn 0.000000 0.000000 -2.540000
vn 0.000000 0.000000 -2.540000
vn 0.000000 0.000000 -2.540000
usemtl 191,191,191
f 207/56/56 209/1/1 188/57/57
f 188/57/57 209/1/1 205/2/2
f 188/57/57 205/2/2 180/105/105
f 180/105/105 205/2/2 201/3/3
f 180/105/105 201/3/3 176/104/104
f 176/104/104 201/3/3 197/4/4
f 176/104/104 197/4/4 172/103/103
f 172/103/103 197/4/4 193/5/5
f 172/103/103 193/5/5 164/102/102
f 164/102/102 193/5/5 189/6/6
f 164/102/102 189/6/6 160/101/101
f 160/101/101 189/6/6 183/7/7
f 160/101/101 183/7/7 152/100/100
f 152/100/100 183/7/7 167/8/8
f 152/100/100 167/8/8 144/99/99
f 144/99/99 167/8/8 155/9/9
f 144/99/99 155/9/9 147/10/10
f 144/99/99 147/10/10 136/98/98
f 136/98/98 147/10/10 139/11/11
f 136/98/98 139/11/11 128/97/97
f 128/97/97 139/11/11 131/12/12
f 128/97/97 131/12/12 124/96/96
f 124/96/96 131/12/12 119/13/13
f 124/96/96 119/13/13 116/95/95
f 116/95/95 119/13/13 111/14/14
f 116/95/95 111/14/14 108/94/94
f 108/94/94 111/14/14 103/15/15
f 108/94/94 103/15/15 100/93/93
f 100/93/93 103/15/15 95/16/16
f 100/93/93 95/16/16 92/92/92
f 92/92/92 95/16/16 87/17/17
f 92/92/92 87/17/17 79/18/18
f 92/92/92 79/18/18 84/91/91
f 84/91/91 79/18/18 71/19/19
f 84/91/91 71/19/19 76/90/90
f 76/90/90 71/19/19 59/20/20
f 76/90/90 59/20/20 68/89/89
f 68/89/89 59/20/20 51/21/21
f 68/89/89 51/21/21 64/88/88
f 64/88/88 51/21/21 43/22/22
f 64/88/88 43/22/22 56/87/87
f 56/87/87 43/22/22 27/23/23
f 56/87/87 27/23/23 48/86/86
f 48/86/86 27/23/23 19/24/24
f 48/86/86 19/24/24 40/85/85
f 40/85/85 19/24/24 15/25/25
f 40/85/85 15/25/25 11/26/26
f 40/85/85 11/26/26 36/84/84
f 36/84/84 11/26/26 7/27/27
f 36/84/84 7/27/27 32/83/83
f 32/83/83 7/27/27 3/28/28
f 32/83/83 3/28/28 24/82/82
f 24/82/82 3/28/28 1/29/29
f 24/82/82 1/29/29 26/81/81
f 26/81/81 1/29/29 5/30/30
f 26/81/81 5/30/30 34/80/80
f 34/80/80 5/30/30 9/31/31
f 34/80/80 9/31/31 38/79/79
f 38/79/79 9/31/31 13/32/32
f 38/79/79 13/32/32 42/78/78
f 42/78/78 13/32/32 17/33/33
f 42/78/78 17/33/33 21/34/34
f 42/78/78 21/34/34 50/77/77
f 50/77/77 21/34/34 29/35/35
f 50/77/77 29/35/35 58/76/76
f 58/76/76 29/35/35 45/36/36
f 58/76/76 45/36/36 66/75/75
f 66/75/75 45/36/36 53/37/37
f 66/75/75 53/37/37 70/74/74
f 70/74/74 53/37/37 61/38/38
f 70/74/74 61/38/38 78/73/73
f 78/73/73 61/38/38 73/39/39
f 78/73/73 73/39/39 86/72/72
f 86/72/72 73/39/39 81/40/40
f 86/72/72 81/40/40 94/71/71
f 94/71/71 81/40/40 89/41/41
f 94/71/71 89/41/41 97/42/42
f 94/71/71 97/42/42 102/70/70
f 102/70/70 97/42/42 105/43/43
f 102/70/70 105/43/43 110/69/69
f 110/69/69 105/43/43 113/44/44
f 110/69/69 113/44/44 118/68/68
f 118/68/68 113/44/44 121/45/45
f 118/68/68 121/45/45 126/67/67
f 126/67/67 121/45/45 133/46/46
f 126/67/67 133/46/46 130/66/66
f 130/66/66 133/46/46 141/47/47
f 130/66/66 141/47/47 138/65/65
f 138/65/65 141/47/47 149/48/48
f 138/65/65 149/48/48 146/64/64
f 146/64/64 149/48/48 157/49/49
f 146/64/64 157/49/49 169/50/50
f 146/64/64 169/50/50 154/63/63
f 154/63/63 169/50/50 185/51/51
f 154/63/63 185/51/51 162/62/62
f 162/62/62 185/51/51 191/52/52
f 162/62/62 191/52/52 166/61/61
f 166/61/61 191/52/52 195/53/53
f 166/61/61 195/53/53 174/60/60
f 174/60/60 195/53/53 199/54/54
f 174/60/60 199/54/54 178/59/59
f 178/59/59 199/54/54 203/55/55
f 178/59/59 203/55/55 182/58/58
f 182/58/58 203/55/55 207/56/56
f 182/58/58 207/56/56 188/57/57
f 206/107/107 205/217/217 210/106/106
f 210/106/106 205/217/217 209/218/218
f 210/219/219 209/162/162 208/161/161
f 208/161/161 209/162/162 207/163/163
f 208/161/161 207/163/163 204/160/160
f 204/160/160 207/163/163 203/164/164
f 204/160/160 203/164/164 200/159/159
f 200/159/159 203/164/164 199/165/165
f 200/159/159 199/165/165 196/158/158
f 196/158/158 199/165/165 195/166/166
f 196/158/158 195/166/166 192/157/157
f 192/157/157 195/166/166 191/167/167
f 192/157/157 191/167/167 186/156/156
f 186/156/156 191/167/167 185/168/168
f 186/156/156 185/168/168 170/155/155
f 170/155/155 185/168/168 169/169/169
f 170/155/155 169/169/169 158/154/154
f 158/154/154 169/169/169 157/170/170
f 158/154/154 157/170/170 150/153/153
f 150/153/153 157/170/170 149/171/171
f 150/153/153 149/171/171 142/152/152
f 142/152/152 149/171/171 141/172/172
f 142/152/152 141/172/172 134/151/151
f 134/151/151 141/172/172 133/173/173
f 134/151/151 133/173/173 122/150/150
f 122/150/150 133/173/173 121/174/174
f 122/150/150 121/174/174 114/149/149
f 114/149/149 121/174/174 113/175/175
f 114/149/149 113/175/175 106/148/148
f 106/148/148 113/175/175 105/176/176
f 106/148/148 105/176/176 98/147/147
f 98/147/147 105/176/176 97/177/177
f 98/147/147 97/177/177 90/146/146
f 90/146/146 97/177/177 89/178/178
f 90/146/146 89/178/178 82/145/145
f 82/145/145 89/178/178 81/179/179
f 82/145/145 81/179/179 74/144/144
f 74/144/144 81/179/179 73/180/180
f 74/144/144 73/180/180 62/143/143
f 62/143/143 73/180/180 61/181/181
f 62/143/143 61/181/181 54/142/142
f 54/142/142 61/181/181 53/182/182
f 54/142/142 53/182/182 46/141/141
f 46/141/141 53/182/182 45/183/183
f 46/141/141 45/183/183 30/140/140
f 30/140/140 45/183/183 29/184/184
f 30/140/140 29/184/184 22/139/139
f 22/139/139 29/184/184 21/185/185
f 22/139/139 21/185/185 18/138/138
f 18/138/138 21/185/185 17/186/186
f 18/138/138 17/186/186 14/137/137
f 14/137/137 17/186/186 13/187/187
f 14/137/137 13/187/187 10/136/136
f 10/136/136 13/187/187 9/188/188
f 10/136/136 9/188/188 6/135/135
f 6/135/135 9/188/188 5/189/189
f 6/135/135 5/189/189 2/134/134
f 2/134/134 5/189/189 1/190/190
f 2/134/134 1/190/190 4/133/133
f 4/133/133 1/190/190 3/191/191
f 4/133/133 3/191/191 8/132/132
f 8/132/132 3/191/191 7/192/192
f 8/132/132 7/192/192 12/131/131
f 12/131/131 7/192/192 11/193/193
f 12/131/131 11/193/193 16/130/130
f 16/130/130 11/193/193 15/194/194
f 16/130/130 15/194/194 20/129/129
f 20/129/129 15/194/194 19/195/195
f 20/129/129 19/195/195 28/128/128
f 28/128/128 19/195/195 27/196/196
f 28/128/128 27/196/196 44/127/127
f 44/127/127 27/196/196 43/197/197
f 44/127/127 43/197/197 52/126/126
f 52/126/126 43/197/197 51/198/198
f 52/126/126 51/198/198 60/125/125
f 60/125/125 51/198/198 59/199/199
f 60/125/125 59/199/199 72/124/124
f 72/124/124 59/199/199 71/200/200
f 72/124/124 71/200/200 80/123/123
f 80/123/123 71/200/200 79/201/201
f 80/123/123 79/201/201 88/122/122
f 88/122/122 79/201/201 87/202/202
f 88/122/122 87/202/202 96/121/121
f 96/121/121 87/202/202 95/203/203
f 96/121/121 95/203/203 104/120/120
f 104/120/120 95/203/203 103/204/204
f 104/120/120 103/204/204 112/119/119
f 112/119/119 103/204/204 111/205/205
f 112/119/119 111/205/205 120/118/118
f 120/118/118 111/205/205 119/206/206
f 120/118/118 119/206/206 132/117/117
f 132/117/117 119/206/206 131/207/207
f 132/117/117 131/207/207 140/116/116
f 140/116/116 131/207/207 139/208/208
f 140/116/116 139/208/208 148/115/115
f 148/115/115 139/208/208 147/209/209
f 148/115/115 147/209/209 156/114/114
f 156/114/114 147/209/209 155/210/210
f 156/114/114 155/210/210 168/113/113
f 168/113/113 155/210/210 167/211/211
f 168/113/113 167/211/211 184/112/112
f 184/112/112 167/211/211 183/212/212
f 184/112/112 183/212/212 190/111/111
f 190/111/111 183/212/212 189/213/213
f 190/111/111 189/213/213 194/110/110
f 194/110/110 189/213/213 193/214/214
f 194/110/110 193/214/214 198/109/109
f 198/109/109 193/214/214 197/215/215
f 198/109/109 197/215/215 202/108/108
f 202/108/108 197/215/215 201/216/216
f 202/108/108 201/216/216 206/107/107
f 206/107/107 201/216/216 205/217/217
f 208/221/221 6/247/247 210/220/220
f 210/220/220 6/247/247 2/248/248
f 210/220/220 2/248/248 206/275/275
f 206/275/275 2/248/248 4/249/249
f 206/275/275 4/249/249 202/274/274
f 202/274/274 4/249/249 8/250/250
f 202/274/274 8/250/250 198/273/273
f 198/273/273 8/250/250 12/251/251
f 198/273/273 12/251/251 194/272/272
f 194/272/272 12/251/251 16/252/252
f 194/272/272 16/252/252 190/271/271
f 190/271/271 16/252/252 20/253/253
f 190/271/271 20/253/253 184/270/270
f 184/270/270 20/253/253 28/254/254
f 184/270/270 28/254/254 168/269/269
f 168/269/269 28/254/254 44/255/255
f 168/269/269 44/255/255 156/268/268
f 156/268/268 44/255/255 52/256/256
f 156/268/268 52/256/256 148/267/267
f 148/267/267 52/256/256 60/257/257
f 148/267/267 60/257/257 140/266/266
f 140/266/266 60/257/257 72/258/258
f 140/266/266 72/258/258 132/265/265
f 132/265/265 72/258/258 80/259/259
f 132/265/265 80/259/259 120/264/264
f 120/264/264 80/259/259 88/260/260
f 120/264/264 88/260/260 112/263/263
f 112/263/263 88/260/260 96/261/261
f 112/263/263 96/261/261 104/262/262
f 6/247/247 208/221/221 10/246/246
f 10/246/246 208/221/221 204/222/222
f 10/246/246 204/222/222 14/245/245
f 14/245/245 204/222/222 200/223/223
f 14/245/245 200/223/223 18/244/244
f 18/244/244 200/223/223 196/224/224
f 18/244/244 196/224/224 22/243/243
f 22/243/243 196/224/224 192/225/225
f 22/243/243 192/225/225 30/242/242
f 30/242/242 192/225/225 186/226/226
f 30/242/242 186/226/226 46/241/241
f 46/241/241 186/226/226 170/227/227
f 46/241/241 170/227/227 54/240/240
f 54/240/240 170/227/227 158/228/228
f 54/240/240 158/228/228 62/239/239
f 62/239/239 158/228/228 150/229/229
f 62/239/239 150/229/229 74/238/238
f 74/238/238 150/229/229 142/230/230
f 74/238/238 142/230/230 82/237/237
f 82/237/237 142/230/230 134/231/231
f 82/237/237 134/231/231 90/236/236
f 90/236/236 134/231/231 122/232/232
f 90/236/236 122/232/232 98/235/235
f 98/235/235 122/232/232 114/233/233
f 98/235/235 114/233/233 106/234/234
f 180/277/277 179/373/373 188/276/276
f 188/276/276 179/373/373 187/374/374
f 188/375/375 187/325/325 182/324/324
f 182/324/324 187/325/325 181/326/326
f 182/324/324 181/326/326 178/323/323
f 178/323/323 181/326/326 177/327/327
f 178/323/323 177/327/327 174/322/322
f 174/322/322 177/327/327 173/328/328
f 174/322/322 173/328/328 166/321/321
f 166/321/321 173/328/328 165/329/329
f 166/321/321 165/329/329 162/320/320
f 162/320/320 165/329/329 161/330/330
f 162/320/320 161/330/330 154/319/319
f 154/319/319 161/330/330 153/331/331
f 154/319/319 153/331/331 146/318/318
f 146/318/318 153/331/331 145/332/332
f 146/318/318 145/332/332 138/317/317
f 138/317/317 145/332/332 137/333/333
f 138/317/317 137/333/333 130/316/316
f 130/316/316 137/333/333 129/334/334
f 130/316/316 129/334/334 126/315/315
f 126/315/315 129/334/334 125/335/335
f 126/315/315 125/335/335 118/314/314
f 118/314/314 125/335/335 117/336/336
f 118/314/314 117/336/336 110/313/313
f 110/313/313 117/336/336 109/337/337
f 110/313/313 109/337/337 102/312/312
f 102/312/312 109/337/337 101/338/338
f 102/312/312 101/338/338 94/311/311
f 94/311/311 101/338/338 93/339/339
f 94/311/311 93/339/339 86/310/310
f 86/310/310 93/339/339 85/340/340
f 86/310/310 85/340/340 78/309/309
f 78/309/309 85/340/340 77/341/341
f 78/309/309 77/341/341 70/308/308
f 70/308/308 77/341/341 69/342/342
f 70/308/308 69/342/342 66/307/307
f 66/307/307 69/342/342 65/343/343
f 66/307/307 65/343/343 58/306/306
f 58/306/306 65/343/343 57/344/344
f 58/306/306 57/344/344 50/305/305
f 50/305/305 57/344/344 49/345/345
f 50/305/305 49/345/345 42/304/304
f 42/304/304 49/345/345 41/346/346
f 42/304/304 41/346/346 38/303/303
f 38/303/303 41/346/346 37/347/347
f 38/303/303 37/347/347 34/302/302
f 34/302/302 37/347/347 33/348/348
f 34/302/302 33/348/348 26/301/301
f 26/301/301 33/348/348 25/349/349
f 26/301/301 25/349/349 24/300/300
f 24/300/300 25/349/349 23/350/350
f 24/300/300 23/350/350 32/299/299
f 32/299/299 23/350/350 31/351/351
f 32/299/299 31/351/351 36/298/298
f 36/298/298 31/351/351 35/352/352
f 36/298/298 35/352/352 40/297/297
f 40/297/297 35/352/352 39/353/353
f 40/297/297 39/353/353 48/296/296
f 48/296/296 39/353/353 47/354/354
f 48/296/296 47/354/354 56/295/295
f 56/295/295 47/354/354 55/355/355
f 56/295/295 55/355/355 64/294/294
f 64/294/294 55/355/355 63/356/356
f 64/294/294 63/356/356 68/293/293
f 68/293/293 63/356/356 67/357/357
f 68/293/293 67/357/357 76/292/292
f 76/292/292 67/357/357 75/358/358
f 76/292/292 75/358/358 84/291/291
f 84/291/291 75/358/358 83/359/359
f 84/291/291 83/359/359 92/290/290
f 92/290/290 83/359/359 91/360/360
f 92/290/290 91/360/360 100/289/289
f 100/289/289 91/360/360 99/361/361
f 100/289/289 99/361/361 108/288/288
f 108/288/288 99/361/361 107/362/362
f 108/288/288 107/362/362 116/287/287
f 116/287/287 107/362/362 115/363/363
f 116/287/287 115/363/363 124/286/286
f 124/286/286 115/363/363 123/364/364
f 124/286/286 123/364/364 128/285/285
f 128/285/285 123/364/364 127/365/365
f 128/285/285 127/365/365 136/284/284
f 136/284/284 127/365/365 135/366/366
f 136/284/284 135/366/366 144/283/283
f 144/283/283 135/366/366 143/367/367
f 144/283/283 143/367/367 152/282/282
f 152/282/282 143/367/367 151/368/368
f 152/282/282 151/368/368 160/281/281
f 160/281/281 151/368/368 159/369/369
f 160/281/281 159/369/369 164/280/280
f 164/280/280 159/369/369 163/370/370
f 164/280/280 163/370/370 172/279/279
f 172/279/279 163/370/370 171/371/371
f 172/279/279 171/371/371 176/278/278
f 176/278/278 171/371/371 175/372/372
f 176/278/278 175/372/372 180/277/277
f 180/277/277 175/372/372 179/373/373
f 181/424/424 187/376/376 35/398/398
f 35/398/398 187/376/376 179/377/377
f 35/398/398 179/377/377 175/378/378
f 175/378/378 171/379/379 35/398/398
f 35/398/398 171/379/379 39/397/397
f 39/397/397 171/379/379 163/380/380
f 39/397/397 163/380/380 47/396/396
f 47/396/396 163/380/380 159/381/381
f 47/396/396 159/381/381 55/395/395
f 55/395/395 159/381/381 151/382/382
f 55/395/395 151/382/382 63/394/394
f 63/394/394 151/382/382 143/383/383
f 63/394/394 143/383/383 67/393/393
f 67/393/393 143/383/383 135/384/384
f 67/393/393 135/384/384 75/392/392
f 75/392/392 135/384/384 127/385/385
f 75/392/392 127/385/385 83/391/391
f 83/391/391 127/385/385 123/386/386
f 83/391/391 123/386/386 91/390/390
f 91/390/390 123/386/386 115/387/387
f 91/390/390 115/387/387 99/389/389
f 99/389/389 115/387/387 107/388/388
f 31/399/399 37/403/403 35/398/398
f 35/398/398 37/403/403 41/404/404
f 35/398/398 41/404/404 49/405/405
f 37/403/403 31/399/399 33/402/402
f 33/402/402 31/399/399 23/400/400
f 33/402/402 23/400/400 25/401/401
f 49/405/405 57/406/406 35/398/398
f 35/398/398 57/406/406 65/407/407
f 35/398/398 65/407/407 69/408/408
f 69/408/408 77/409/409 35/398/398
f 35/398/398 77/409/409 85/410/410
f 35/398/398 85/410/410 93/411/411
f 93/411/411 101/412/412 35/398/398
f 35/398/398 101/412/412 109/413/413
f 35/398/398 109/413/413 117/414/414
f 117/414/414 125/415/415 35/398/398
f 35/398/398 125/415/415 129/416/416
f 35/398/398 129/416/416 137/417/417
f 137/417/417 145/418/418 35/398/398
f 35/398/398 145/418/418 153/419/419
f 35/398/398 153/419/419 161/420/420
f 161/420/420 165/421/421 35/398/398
f 35/398/398 165/421/421 173/422/422
f 35/398/398 173/422/422 177/423/423
f 177/423/423 181/424/424 35/398/398

# 210 vertices
# 424 texture params
# 424 normals
# 416 facets

# 1 groups
